%YAML 1.1
%TAG !u! tag:unity3d.com,2011:
--- !u!114 &11400000
MonoBehaviour:
  m_ObjectHideFlags: 0
  m_CorrespondingSourceObject: {fileID: 0}
  m_PrefabInstance: {fileID: 0}
  m_PrefabAsset: {fileID: 0}
  m_GameObject: {fileID: 0}
  m_Enabled: 1
  m_EditorHideFlags: 0
  m_Script: {fileID: 11500000, guid: 0ff6e1c4deec43fc8732a7f7e0f51181, type: 3}
  m_Name: BMW_E34
  m_EditorClassIdentifier: 
  _id: 1
  _propertyProviders:
  - id: 0
  - id: 1
  - id: 2
  - id: 3
  - id: 4
  - id: 5
  references:
    version: 1
    00000000:
      type: {class: StringPropertyProvider, ns: Model.Properties, asm: Assembly-CSharp}
      data:
        _propertyId: 0
        _value: BMW E34
    00000001:
      type: {class: SpritePropertyProvider, ns: Model.Properties, asm: Assembly-CSharp}
      data:
        _propertyId: 1
        _value: {fileID: 21300000, guid: ea6e63c78ea071043b8f61f7f29e9aae, type: 3}
    00000002:
      type: {class: StringIntPropertyProvider, ns: Model.Properties, asm: Assembly-CSharp}
      data:
        _propertyId: 2
        _key: "\u041C\u0430\u0441\u0441\u0430"
        _value: 1500
    00000003:
      type: {class: StringIntPropertyProvider, ns: Model.Properties, asm: Assembly-CSharp}
      data:
        _propertyId: 3
        _key: "\u0412\u043C\u0435\u0441\u0442\u0438\u043C\u043E\u0441\u0442\u044C"
        _value: 4
    00000004:
      type: {class: StringIntPropertyProvider, ns: Model.Properties, asm: Assembly-CSharp}
      data:
        _propertyId: 4
        _key: "\u041C\u0430\u043A\u0441. \u0441\u043A\u043E\u0440\u043E\u0441\u0442\u044C"
        _value: 260
    00000005:
      type: {class: StringStringPropertyProvider, ns: Model.Properties, asm: Assembly-CSharp}
      data:
        _propertyId: 5
        _key: "\u0426\u0432\u0435\u0442"
        _value: Black
